{
  "auth": ["svncloud", "SvnCl0ud"],
  "urls": [
    {
      "base_file": "https://redmind/svn/Serenity/projects/MiniGW/Infrastructure/tags/81/Common/globdef.h",
      "recent_file": "https://redmind/svn/Serenity/projects/MiniGW/Infrastructure/trank/Common/globdef.h"
    }
  ],
  "dummy": 14
}

